orden|jerarquia|nivel|funcional
"732"|"MANDOS MUNICIPALES"|"NA"|"AUTORIDAD SUSTANCIADORA"
"733"|"MANDOS MUNICIPALES"|"NA"|"CONSEJERO JURIDICO"
"734"|"MANDOS MUNICIPALES"|"NA"|"CONTRALOR"
"735"|"MANDOS MUNICIPALES"|"NA"|"COORDINADOR"
"736"|"MANDOS MUNICIPALES"|"NA"|"DEFENSOR"
"737"|"MANDOS MUNICIPALES"|"NA"|"DELEGADO ADMINISTRATIVO"
"738"|"MANDOS MUNICIPALES"|"NA"|"DELEGADO ADMINISTRATIVO A"
"739"|"MANDOS MUNICIPALES"|"NA"|"DIRECTOR"
"740"|"MANDOS MUNICIPALES"|"NA"|"DIRECTOR A"
"741"|"MANDOS MUNICIPALES"|"NA"|"DIRECTOR C"
"742"|"MANDOS MUNICIPALES"|"NA"|"DIRECTOR DE AREA"
"743"|"MANDOS MUNICIPALES"|"NA"|"DIRECTOR GENERAL"
"744"|"MANDOS MUNICIPALES"|"NA"|"ENCARGADO DEL DESPACHO"
"745"|"MANDOS MUNICIPALES"|"NA"|"ENLACE ADMINISTRATIVO"
"746"|"MANDOS MUNICIPALES"|"NA"|"JEFE DE DEPARTAMENTO"
"747"|"MANDOS MUNICIPALES"|"NA"|"JEFE DE DEPARTAMENTO B"
"748"|"MANDOS MUNICIPALES"|"NA"|"JEFE DE DEPARTAMENTO C"
"749"|"MANDOS MUNICIPALES"|"NA"|"JEFE DE OFICINA"
"750"|"MANDOS MUNICIPALES"|"NA"|"JEFE DE UNIDAD"
"751"|"MANDOS MUNICIPALES"|"NA"|"NA"
"752"|"MANDOS MUNICIPALES"|"NA"|"OFICIAL"
"753"|"MANDOS MUNICIPALES"|"NA"|"PRESIDENTE"
"754"|"MANDOS MUNICIPALES"|"NA"|"PRESIDENTE DE LA PRECEPTORIA"
"755"|"MANDOS MUNICIPALES"|"NA"|"PRESIDENTE MUNICIPAL CONSTITUCIONAL"
"756"|"MANDOS MUNICIPALES"|"NA"|"REGIDOR"
"757"|"MANDOS MUNICIPALES"|"NA"|"SECRETARIO DE ACUERDOS"
"758"|"MANDOS MUNICIPALES"|"NA"|"SECRETARIO DEL AYUNTAMIENTO"
"759"|"MANDOS MUNICIPALES"|"NA"|"SECRETARIO DEL GABINETE"
"760"|"MANDOS MUNICIPALES"|"NA"|"SECRETARIO PARTICULAR"
"761"|"MANDOS MUNICIPALES"|"NA"|"SECRETARIO TECNICO"
"762"|"MANDOS MUNICIPALES"|"NA"|"SINDICO"
"763"|"MANDOS MUNICIPALES"|"NA"|"SUBCOORDINADOR"
"764"|"MANDOS MUNICIPALES"|"NA"|"SUBDIRECTOR"
"765"|"MANDOS MUNICIPALES"|"NA"|"TESORERO MUNICIPAL"
"766"|"MANDOS MUNICIPALES"|"NA"|"TITULAR"
"767"|"MANDOS MUNICIPALES"|"NA"|"TITULAR DE UNIDAD"
"768"|"MANDOS MUNICIPALES"|"NA"|"ADMINISTRADOR DEL AYUNTAMIENTO"
"769"|"MANDOS MUNICIPALES"|"NA"|"RESPONSABLE JURÍDICO"
"784"|"MANDOS MUNICIPALES"|"NA"|"AUXILIAR OPERATIVO"
"785"|"MANDOS MUNICIPALES"|"NA"|"JEFE DE SERVICIO"
"786"|"MANDOS MUNICIPALES"|"NA"|"ASESOR"
"789"|"MANDOS MUNICIPALES"|"NA"|"AUXILIAR CONTABLE"
